{
  "name": "",
  "css_prefix_text": "icon-",
  "css_use_suffix": false,
  "hinting": true,
  "units_per_em": 1000,
  "ascent": 850,
  "glyphs": [
    {
      "uid": "3be61123ca84105b87c47ae5186233b6",
      "css": "beach",
      "code": 59392,
      "src": "custom_icons",
      "selected": true,
      "svg": {
        "path": "M683.1 528C751.7 528 807.5 472.1 807.5 403.5 807.5 334.8 751.7 279 683.1 279 614.4 279 558.6 334.8 558.6 403.5 558.6 472.1 614.4 528 683.1 528ZM683.1 332.1C722.4 332.1 754.5 364.1 754.5 403.5 754.5 442.9 722.4 474.9 683.1 474.9 643.7 474.9 611.6 442.9 611.6 403.5 611.6 364.1 643.7 332.1 683.1 332.1ZM683.1 228.4C697.7 228.4 709.6 216.5 709.6 201.8V143.3C709.6 128.6 697.7 116.8 683.1 116.8 668.4 116.8 656.5 128.6 656.5 143.3V201.8C656.5 216.5 668.4 228.4 683.1 228.4ZM656.5 605.1V663.7C656.5 678.3 668.4 690.2 683.1 690.2 697.7 690.2 709.6 678.3 709.6 663.7V605.1C709.6 590.5 697.7 578.6 683.1 578.6 668.4 578.6 656.5 590.5 656.5 605.1ZM858.2 403.5C858.2 418.1 870.1 430 884.7 430H943.3C957.9 430 969.8 418.1 969.8 403.5 969.8 388.8 957.9 376.9 943.3 376.9H884.7C870.1 376.9 858.2 388.8 858.2 403.5ZM422.9 430H481.4C496.1 430 507.9 418.1 507.9 403.5 507.9 388.8 496.1 376.9 481.4 376.9H422.9C408.2 376.9 396.3 388.8 396.3 403.5 396.3 418.1 408.2 430 422.9 430ZM806.9 527.3C796.5 537.7 796.5 554.5 806.9 564.8L848.3 606.2C853.5 611.4 860.2 614 867 614 873.8 614 880.6 611.4 885.8 606.2 896.2 595.9 896.2 579.1 885.8 568.7L844.4 527.3C834 517 817.2 517 806.9 527.3ZM521.7 279.7C526.9 284.9 533.7 287.5 540.5 287.5 547.2 287.5 554 284.9 559.2 279.7 569.6 269.3 569.6 252.5 559.2 242.2L517.8 200.8C507.5 190.4 490.7 190.4 480.3 200.8 469.9 211.1 469.9 227.9 480.3 238.3L521.7 279.7ZM521.7 527.3L480.3 568.7C469.9 579.1 469.9 595.9 480.3 606.3 485.5 611.4 492.3 614 499.1 614 505.9 614 512.7 611.4 517.8 606.3L559.2 564.9C569.6 554.5 569.6 537.7 559.2 527.3 548.9 517 532.1 517 521.7 527.3ZM825.6 287.4C832.4 287.4 839.2 284.9 844.4 279.7L885.8 238.3C896.1 227.9 896.1 211.1 885.8 200.7 875.4 190.4 858.6 190.4 848.2 200.7L806.9 242.1C796.5 252.5 796.5 269.3 806.9 279.7 812 284.9 818.8 287.4 825.6 287.4ZM973.5 830.2C931.8 830.2 912.3 821.7 889.7 811.9 865.3 801.4 837.5 789.3 784.9 789.3 732.3 789.3 704.6 801.4 680.1 811.9 657.5 821.7 638 830.2 596.4 830.2 554.7 830.2 535.2 821.7 512.6 811.9 488.2 801.4 460.5 789.3 407.8 789.3 355.2 789.3 327.5 801.4 303 811.9 280.4 821.7 260.9 830.2 219.3 830.2 195.9 830.2 179.5 827.5 165.6 823.5 143.3 755.2 147 678.6 176.9 595.5 189.7 559.8 204.9 530.2 216.2 510.6 242.5 538.6 280.9 590 261.3 636.8 255.6 650.3 262 665.9 275.5 671.5 278.9 672.9 282.3 673.6 285.8 673.6 296.1 673.6 306 667.5 310.3 657.3 336 595.9 305 536.2 273.9 496.5 303.2 502.4 340.4 520.1 376.9 565.6 382.1 572.1 389.8 575.5 397.6 575.5 403.4 575.5 409.3 573.6 414.2 569.7 425.6 560.5 427.4 543.8 418.3 532.4 366.1 467.4 310.3 447.6 272.8 442.6 258.1 440.6 245 440.6 234 441.5 231.1 427.7 225.5 410.3 215.1 392.2 194.8 356.9 151.8 312.7 62.3 302.2 47.7 300.6 34.5 311 32.8 325.5 31.1 340.1 41.6 353.3 56.1 355 109.4 361.2 147 381.9 168 416.8 169.6 419.5 171 422.1 172.4 424.8 167.1 423.4 161.6 422.1 155.9 421 101.8 410.6 51.4 422.3 10.1 454.7-1.4 463.8-3.4 480.5 5.7 492 10.9 498.6 18.7 502.1 26.5 502.1 32.3 502.1 38.1 500.3 42.9 496.4 90.1 459.4 142.4 469.3 172.4 480.3 159.8 501.8 142.3 535 127.4 576 99.1 654.3 91.5 730.7 104.9 799.9 86.3 793.9 63.3 789.4 30.7 789.4 16.1 789.4 4.2 801.2 4.2 815.9 4.2 830.5 16.1 842.4 30.7 842.4 72.4 842.4 91.9 850.9 114.5 860.7 138.9 871.2 166.6 883.3 219.3 883.3S299.6 871.2 324.1 860.7C346.7 850.9 366.2 842.4 407.8 842.4S469 850.9 491.5 860.7C516 871.2 543.7 883.3 596.4 883.3 649 883.3 676.7 871.2 701.2 860.7 723.8 850.9 743.3 842.4 784.9 842.4 826.5 842.4 846.1 850.9 868.6 860.7 893.1 871.2 920.8 883.3 973.5 883.3 988.1 883.3 1000 871.4 1000 856.7 1000 842.1 988.1 830.2 973.5 830.2Z",
        "width": 1000
      },
      "search": [
        "beach"
      ]
    },
    {
      "uid": "8ce595bde6222231be1faf1e8394c361",
      "css": "lake",
      "code": 59393,
      "src": "custom_icons",
      "selected": true,
      "svg": {
        "path": "M996.7 926.8C980.7 905.9 956.5 893.9 930.1 893.9 903.8 893.9 879.6 905.9 863.6 926.8 853.8 939.7 838.8 947 822.6 947 811.2 947 800 943.2 791.1 936.3 784.1 930.9 774 932.1 768.5 939.2 763.1 946.2 764.4 956.3 771.4 961.7 785.9 973 804.1 979.2 822.6 979.2 848.9 979.2 873.2 967.2 889.2 946.3 899 933.4 913.9 926 930.1 926 946.4 926 961.3 933.4 971.2 946.3 976.5 953.3 986.6 954.7 993.7 949.3 1000.7 943.9 1002.1 933.8 996.7 926.8ZM996.7 821C980.7 800.1 956.5 788.2 930.1 788.2 903.8 788.2 879.6 800.1 863.6 821 853.8 833.9 838.8 841.3 822.6 841.3 811.2 841.3 800 837.5 791.1 830.6 787.6 827.9 784.4 824.7 781.6 821 771.7 808.1 758.7 798.6 744 793.2V716C744.1 645 771.2 578 820.6 527.1 826.7 520.8 826.6 510.6 820.2 504.4 813.8 498.2 803.7 498.4 797.5 504.7 775.6 527.3 757.7 552.6 744 580V471.2C767.6 465.1 785.1 443.6 785.1 418.2V269.5C785.1 244 767.6 222.6 744 216.5V202C744 193.2 736.8 186 727.9 186 719 186 711.8 193.2 711.8 202V218C690.7 225.6 675.6 245.8 675.6 269.5V418.2C675.6 441.8 690.7 462.1 711.8 469.7V716C711.8 716.1 711.8 716.2 711.8 716.3 711.8 716.3 711.8 716.4 711.8 716.4V788.2C686.8 789.2 663.8 801 648.5 821.1 638.7 833.9 623.7 841.3 607.5 841.3 591.3 841.3 576.4 833.9 566.6 821.1 566.4 820.8 566.2 820.6 566 820.4 558.3 810.4 548.6 802.6 537.7 797.1 551.6 723.4 586.6 655.4 639.7 600.6 645.9 594.2 645.8 584 639.4 577.9 633 571.7 622.8 571.8 616.7 578.2 579.8 616.3 550.9 660.2 531 707.9V416C563.3 408.7 587.5 379.8 587.5 345.3V224.3C587.5 215.5 580.3 208.3 571.4 208.3 562.6 208.3 555.4 215.5 555.4 224.3V345.3C555.4 367.6 537.2 385.7 514.9 385.7 492.7 385.7 474.5 367.6 474.5 345.3V128C474.5 105.7 492.7 87.5 514.9 87.5 537.2 87.5 555.4 105.7 555.4 128V170.8C555.4 179.6 562.6 186.8 571.4 186.8 580.3 186.8 587.5 179.6 587.5 170.8V128C587.5 93.5 563.3 64.5 531 57.2V36.9C531 28 523.8 20.8 514.9 20.8 506.1 20.8 498.9 28 498.9 36.9V57.2C466.6 64.5 442.4 93.5 442.4 128V345.3C442.4 379.8 466.6 408.7 498.9 416V568.4C479.3 499.5 451.1 435.9 415.2 380.7 410.3 373.3 400.3 371.2 392.9 376.1 385.5 380.9 383.4 390.9 388.2 398.3 456.9 503.6 495.8 641.5 498.7 788.2 472.9 788.6 449.2 800.5 433.5 821 423.6 833.9 408.7 841.3 392.5 841.3 376.2 841.3 361.3 833.9 351.5 821.1 336.2 801 313.3 789.2 288.2 788.2V470.1C314.4 462.2 333.5 437.8 333.5 409.1V225.5C333.5 197 314.7 172.8 288.8 164.6V142.2C288.8 133.4 281.6 126.2 272.7 126.2S256.6 133.4 256.6 142.2V163.1C227.7 169.1 205.9 194.8 205.9 225.5V348.7C205.9 357.6 213.1 364.8 222 364.8S238 357.6 238 348.7V225.5C238 208.1 252.2 193.9 269.7 193.9S301.3 208.1 301.3 225.5V409.1C301.3 426.5 287.1 440.7 269.7 440.7S238 426.5 238 409.1V391.6C238 382.7 230.8 375.5 222 375.5S205.9 382.7 205.9 391.6V409.1C205.9 439.6 227.4 465.2 256.1 471.4V580C242.3 552.6 224.4 527.3 202.5 504.7 196.4 498.4 186.2 498.2 179.8 504.4 173.4 510.6 173.3 520.8 179.5 527.1 228.8 578.1 256 645.2 256 716.3 256 716.4 256.1 716.4 256.1 716.5V793.2C241.3 798.6 228.3 808.1 218.4 821 215.6 824.7 212.4 827.9 208.9 830.6 200 837.5 188.8 841.3 177.4 841.3 161.2 841.3 146.2 833.9 136.4 821 120.4 800.1 96.2 788.2 69.8 788.2 43.5 788.2 19.3 800.1 3.3 821-2.1 828.1-0.7 838.2 6.3 843.6 13.4 849 23.5 847.6 28.9 840.6 38.7 827.7 53.6 820.3 69.8 820.3 86.1 820.3 101 827.7 110.8 840.6 126.8 861.5 151.1 873.5 177.4 873.5 195.9 873.5 214.1 867.3 228.6 856.1 234.3 851.6 239.4 846.4 243.9 840.6 253.8 827.7 268.7 820.3 284.9 820.3S316.1 827.7 325.9 840.6C341.9 861.5 366.1 873.5 392.5 873.5 418.8 873.5 443 861.5 459 840.6 468.6 828 483.1 820.7 498.9 820.3V868.6C498.9 868.8 498.9 869 498.9 869.1 498.9 869.2 498.9 869.2 498.9 869.3V893.9C473 894.2 449.2 906.1 433.5 926.8 423.6 939.6 408.7 947 392.5 947 376.2 947 361.3 939.7 351.5 926.8 335.5 905.9 311.3 893.9 284.9 893.9 258.6 893.9 234.4 905.8 218.4 926.7 215.6 930.4 212.4 933.6 208.9 936.3 200 943.2 188.8 947 177.4 947 161.2 947 146.2 939.6 136.4 926.8 120.4 905.9 96.2 893.9 69.8 893.9 43.5 893.9 19.3 905.9 3.3 926.8-2.1 933.8-0.7 943.9 6.3 949.3 13.4 954.7 23.5 953.3 28.9 946.3 38.7 933.4 53.6 926 69.8 926 86.1 926 101 933.4 110.8 946.3 126.8 967.2 151.1 979.2 177.4 979.2 195.9 979.2 214.1 973 228.6 961.8 234.3 957.4 239.4 952.1 243.9 946.3 253.8 933.4 268.7 926 284.9 926 301.2 926 316.1 933.4 325.9 946.3 341.9 967.2 366.1 979.2 392.5 979.2 418.8 979.2 443 967.2 459 946.3 468.9 933.4 483.8 926 500 926 516.2 926 531.1 933.4 541 946.3 541.2 946.5 541.3 946.7 541.5 946.9 557.5 967.4 581.5 979.2 607.5 979.2 633.9 979.2 658.1 967.2 674.1 946.3 683.9 933.4 698.9 926 715.1 926 721.9 926 728.6 927.3 734.8 929.9 743 933.3 752.4 929.3 755.8 921.1 759.2 912.9 755.2 903.5 747 900.2 736.9 896 726.1 893.9 715.1 893.9 688.8 893.9 664.5 905.8 648.5 926.8 638.7 939.6 623.7 947 607.5 947 591.3 947 576.4 939.6 566.6 926.8 566.4 926.5 566.2 926.3 566 926.1 556.7 914.2 544.6 905.2 531 899.8V868.6C531 856.3 531.6 844.1 532.8 832 535.8 834.5 538.5 837.4 541 840.6 541.1 840.8 541.3 841 541.5 841.2 557.5 861.7 581.5 873.5 607.5 873.5 633.8 873.5 658.1 861.5 674.1 840.6 683.9 827.7 698.9 820.3 715.1 820.3 731.3 820.3 746.2 827.7 756.1 840.6 760.5 846.4 765.7 851.6 771.4 856 785.9 867.3 804.1 873.5 822.6 873.5 848.9 873.5 873.2 861.5 889.2 840.6 899 827.7 913.9 820.3 930.1 820.3 946.4 820.3 961.3 827.7 971.2 840.6 976.5 847.6 986.6 849 993.7 843.6 1000.7 838.2 1002.1 828.1 996.7 821ZM707.7 418.2V269.5C707.7 257 717.9 246.9 730.3 246.9 742.8 246.9 752.9 257 752.9 269.5V418.2C752.9 430.6 742.8 440.7 730.3 440.7 717.9 440.7 707.7 430.6 707.7 418.2Z",
        "width": 1000
      },
      "search": [
        "lake"
      ]
    },
    {
      "uid": "8219956ee58a5e19064cef7f31eb10a3",
      "css": "skiicon",
      "code": 59394,
      "src": "custom_icons",
      "selected": true,
      "svg": {
        "path": "M665.7 113.7C705.8 113.7 764.9 138.2 764.9 197.3S727.1 365.2 727.1 365.2 826 430 850.7 449.9C902.3 491.4 884.7 528.7 815.7 499.5 703.5 452.2 650.8 428.8 642.4 399.2S641.4 309.7 641.4 309.7L576.6 336.6 302.4 135.1C302.4 135.1 277.2 153 264 153 250.8 153 235 143.3 235 143.3L265.5 102.4 232.8 62.5 278.2 81.8C277.3 81.8 306.3 43.9 306.3 43.9S321.3 52.7 324.8 70.3 321.8 104.8 321.8 104.8L439.8 191.4C439.8 191.4 509.5 113.7 665.7 113.7ZM375.7 272.1C375.7 272.1 597.8 427.5 627.4 450.7 657 474 727.4 535.5 653.2 626.7 580.6 715.9 502.8 803.4 502.8 803.4L458.4 784.4 401.4 754.8C401.4 754.8 508.3 621.4 527.3 596 546.3 570.7 540.3 549.8 514.5 530.4 489.5 511.7 447.1 487 409.5 461 372.4 435.2 314.3 356 375.7 272.1ZM40.8 508.2L807.2 947.7C807.2 947.7 906.4 992.1 959.2 920.3",
        "width": 1000
      },
      "search": [
        "skiicon"
      ]
    },
    {
      "uid": "08699159fddc2f723b7cb2b46fe2ef9d",
      "css": "beach",
      "code": 59395,
      "src": "custom_icons",
      "selected": false,
      "svg": {
        "path": "M683.1 528C751.7 528 807.5 472.1 807.5 403.5 807.5 334.8 751.7 279 683.1 279 614.4 279 558.6 334.8 558.6 403.5 558.6 472.1 614.4 528 683.1 528ZM683.1 332.1C722.4 332.1 754.5 364.1 754.5 403.5 754.5 442.9 722.4 474.9 683.1 474.9 643.7 474.9 611.6 442.9 611.6 403.5 611.6 364.1 643.7 332.1 683.1 332.1ZM683.1 228.4C697.7 228.4 709.6 216.5 709.6 201.8V143.3C709.6 128.6 697.7 116.8 683.1 116.8 668.4 116.8 656.5 128.6 656.5 143.3V201.8C656.5 216.5 668.4 228.4 683.1 228.4ZM656.5 605.1V663.7C656.5 678.3 668.4 690.2 683.1 690.2 697.7 690.2 709.6 678.3 709.6 663.7V605.1C709.6 590.5 697.7 578.6 683.1 578.6 668.4 578.6 656.5 590.5 656.5 605.1ZM858.2 403.5C858.2 418.1 870.1 430 884.7 430H943.3C957.9 430 969.8 418.1 969.8 403.5 969.8 388.8 957.9 376.9 943.3 376.9H884.7C870.1 376.9 858.2 388.8 858.2 403.5ZM422.9 430H481.4C496.1 430 507.9 418.1 507.9 403.5 507.9 388.8 496.1 376.9 481.4 376.9H422.9C408.2 376.9 396.3 388.8 396.3 403.5 396.3 418.1 408.2 430 422.9 430ZM806.9 527.3C796.5 537.7 796.5 554.5 806.9 564.8L848.3 606.2C853.5 611.4 860.2 614 867 614 873.8 614 880.6 611.4 885.8 606.2 896.2 595.9 896.2 579.1 885.8 568.7L844.4 527.3C834 517 817.2 517 806.9 527.3ZM521.7 279.7C526.9 284.9 533.7 287.5 540.5 287.5 547.2 287.5 554 284.9 559.2 279.7 569.6 269.3 569.6 252.5 559.2 242.2L517.8 200.8C507.5 190.4 490.7 190.4 480.3 200.8 469.9 211.1 469.9 227.9 480.3 238.3L521.7 279.7ZM521.7 527.3L480.3 568.7C469.9 579.1 469.9 595.9 480.3 606.3 485.5 611.4 492.3 614 499.1 614 505.9 614 512.7 611.4 517.8 606.3L559.2 564.9C569.6 554.5 569.6 537.7 559.2 527.3 548.9 517 532.1 517 521.7 527.3ZM825.6 287.4C832.4 287.4 839.2 284.9 844.4 279.7L885.8 238.3C896.1 227.9 896.1 211.1 885.8 200.7 875.4 190.4 858.6 190.4 848.2 200.7L806.9 242.1C796.5 252.5 796.5 269.3 806.9 279.7 812 284.9 818.8 287.4 825.6 287.4ZM973.5 830.2C931.8 830.2 912.3 821.7 889.7 811.9 865.3 801.4 837.5 789.3 784.9 789.3 732.3 789.3 704.6 801.4 680.1 811.9 657.5 821.7 638 830.2 596.4 830.2 554.7 830.2 535.2 821.7 512.6 811.9 488.2 801.4 460.5 789.3 407.8 789.3 355.2 789.3 327.5 801.4 303 811.9 280.4 821.7 260.9 830.2 219.3 830.2 195.9 830.2 179.5 827.5 165.6 823.5 143.3 755.2 147 678.6 176.9 595.5 189.7 559.8 204.9 530.2 216.2 510.6 242.5 538.6 280.9 590 261.3 636.8 255.6 650.3 262 665.9 275.5 671.5 278.9 672.9 282.3 673.6 285.8 673.6 296.1 673.6 306 667.5 310.3 657.3 336 595.9 305 536.2 273.9 496.5 303.2 502.4 340.4 520.1 376.9 565.6 382.1 572.1 389.8 575.5 397.6 575.5 403.4 575.5 409.3 573.6 414.2 569.7 425.6 560.5 427.4 543.8 418.3 532.4 366.1 467.4 310.3 447.6 272.8 442.6 258.1 440.6 245 440.6 234 441.5 231.1 427.7 225.5 410.3 215.1 392.2 194.8 356.9 151.8 312.7 62.3 302.2 47.7 300.6 34.5 311 32.8 325.5 31.1 340.1 41.6 353.3 56.1 355 109.4 361.2 147 381.9 168 416.8 169.6 419.5 171 422.1 172.4 424.8 167.1 423.4 161.6 422.1 155.9 421 101.8 410.6 51.4 422.3 10.1 454.7-1.4 463.8-3.4 480.5 5.7 492 10.9 498.6 18.7 502.1 26.5 502.1 32.3 502.1 38.1 500.3 42.9 496.4 90.1 459.4 142.4 469.3 172.4 480.3 159.8 501.8 142.3 535 127.4 576 99.1 654.3 91.5 730.7 104.9 799.9 86.3 793.9 63.3 789.4 30.7 789.4 16.1 789.4 4.2 801.2 4.2 815.9 4.2 830.5 16.1 842.4 30.7 842.4 72.4 842.4 91.9 850.9 114.5 860.7 138.9 871.2 166.6 883.3 219.3 883.3S299.6 871.2 324.1 860.7C346.7 850.9 366.2 842.4 407.8 842.4S469 850.9 491.5 860.7C516 871.2 543.7 883.3 596.4 883.3 649 883.3 676.7 871.2 701.2 860.7 723.8 850.9 743.3 842.4 784.9 842.4 826.5 842.4 846.1 850.9 868.6 860.7 893.1 871.2 920.8 883.3 973.5 883.3 988.1 883.3 1000 871.4 1000 856.7 1000 842.1 988.1 830.2 973.5 830.2Z",
        "width": 1000
      },
      "search": [
        "beach"
      ]
    }
  ]
}